Spatial Data – ZOOL710 Data Science in R for Biologists 2025
…
plants_sf <- read_sf("Threatened-Endangered_Plants/Threatened-Endangered_Plants.shp")

print(plants_sf)

Simple feature collection with 295 features and 4 fields
Geometry type: POLYGON
Dimension:     XY
Bounding box:  xmin: 418663.1 ymin: 2094235 xmax: 940279.3 ymax: 2458614
Projected CRS: NAD83(HARN) / UTM zone 4N
# A tibble: 295 × 5
   objectid density st_areasha st_perimet                               geometry
      <int> <chr>        <dbl>      <dbl>                          <POLYGON [m]>
 1        1 O       486756841.    529043. ((458315.8 2458250, 458323.8 2458261,…
 2        2 O         1902211.     10318. ((442761.6 2457820, 442825.4 2457776,…
 3        3 VH       91796978.     55012. ((439743.9 2457337, 439749.5 2457315,…
 4        4 M       327957790.    178672. ((442266 2457081, 442399.4 2457054, 4…
 5        5 O         3303196.     21531. ((445019.8 2456927, 445048.5 2456954,…
 6        6 L         5716987.     19788. ((454844.9 2452549, 454657 2452625, 4…
 7        7 O           93867.      1576. ((435817.1 2454756, 435799.7 2454719,…
 8        8 L         1422708.      6576. ((457829.4 2452003, 457570.8 2451935,…
 9        9 O         1274152.      5524. ((433566.3 2452939, 433550 2452773, 4…
10       10 M        21326155.     56140. ((425412.9 2449482, 425419.3 2449480,…
# ℹ 285 more rows
…
POLYGON ((442266 2457081, 442399.4 2457054, 442...

POLYGON ((445019.8 2456927, 445048.5 2456954, 4...

old_sf <- read_sf("USGS_Quads_(Old_Hawaiian_Datum)/USGS_Quads_(Old_Hawaiian_Datum).shp")

print(old_sf)

Simple feature collection with 128 features and 5 fields
Geometry type: POLYGON
Dimension:     XY
Bounding box:  xmin: 367593.4 ymin: 2089668 xmax: 946763.1 ymax: 2459366
Projected CRS: NAD83(HARN) / UTM zone 4N
# A tibble: 128 × 6
   objectid qname         qnum  st_areasha st_perimet                   geometry
      <int> <chr>         <chr>      <dbl>      <dbl>              <POLYGON [m]>
 1        1 HAENA         K03   178152007.     53420. ((431559.5 2452918, 43159…
 2        2 HANALEI       K06   178109861.     53416. ((444471.9 2459311, 45735…
 3        3 ANAHOLA       K09   178076759.     53411. ((457315.4 2445444, 45735…
 4        4 MAKAHA POINT  K01   178290448.     53441. ((418674 2452974, 431559.…
 5        5 WAIMEA CANYON K04   178470118.     53467. ((431529.2 2445543, 44442…
 6        6 WAIALEALE     K07   178392925.     53458. ((444422.5 2445489, 45731…
 7        7 KAPAA         K10   178336247.     53449. ((457315.4 2445444, 47020…
 8        8 KEKAHA        K02   178551324.     53480. ((418602.1 2439147, 43149…
 9        9 NIIHAU NORTH  N01   380920692.     81144. ((367716.3 2421892, 36783…
10       10 HANAPEPE      K05   178659961.     53495. ((431468.3 2431707, 44437…
# ℹ 118 more rows
…
